{
    "m_SGVersion": 2,
    "m_Type": "UnityEditor.ShaderGraph.GraphData",
    "m_ObjectId": "a66fbd0855c94b96bd95f4e26318d865",
    "m_Properties": [
        {
            "m_Id": "823513c015c348538c406fdf62c4ac50"
        },
        {
            "m_Id": "e9e321434a194485bfe905c303314671"
        },
        {
            "m_Id": "8e107ea3c2a742009284d877685807e1"
        },
        {
            "m_Id": "ab61e4757102464faa071c0d79890a08"
        },
        {
            "m_Id": "2a5ee06c2ed24aa190be3cb0abc6b3d3"
        },
        {
            "m_Id": "d8b35f7c84744f8ea8b8ff41cf690d71"
        }
    ],
    "m_Keywords": [],
    "m_Nodes": [
        {
            "m_Id": "d1977004a1034932b70642a20968d7b7"
        },
        {
            "m_Id": "b0093df5d0e9401ca41c59f2f6bcecb2"
        },
        {
            "m_Id": "f835e1456f5d4bf6825fbbccb8b08c5c"
        },
        {
            "m_Id": "7a184fc3dbf340d7960011e386fa00eb"
        },
        {
            "m_Id": "15b0726466874d8aa14f3611c637f008"
        },
        {
            "m_Id": "3ea7f9bda9fb4aae862979a10cbca892"
        },
        {
            "m_Id": "c813c987a1bc45179dffe876b20015cd"
        },
        {
            "m_Id": "0cd8f6cfd3dd414fbb901a7f3d102231"
        },
        {
            "m_Id": "b04fa32d9a9743578882488e7c46745e"
        },
        {
            "m_Id": "14575dc7455a4624b42c55d8644613e2"
        },
        {
            "m_Id": "525f8038028b45488c61424c4e64d8a4"
        },
        {
            "m_Id": "410941489c934dbaa68714201083ffdf"
        },
        {
            "m_Id": "ef3c8c36267b4449b26be2231a5c593e"
        },
        {
            "m_Id": "df60462afbb944d6b8025f84623b7e85"
        },
        {
            "m_Id": "77991f1ef1d44b729cde5d3b4b7e7ac5"
        },
        {
            "m_Id": "472de92c59bb4f9893712924512d921f"
        }
    ],
    "m_GroupDatas": [],
    "m_StickyNoteDatas": [],
    "m_Edges": [
        {
            "m_OutputSlot": {
                "m_Node": {
                    "m_Id": "0cd8f6cfd3dd414fbb901a7f3d102231"
                },
                "m_SlotId": 2
            },
            "m_InputSlot": {
                "m_Node": {
                    "m_Id": "b04fa32d9a9743578882488e7c46745e"
                },
                "m_SlotId": 0
            }
        },
        {
            "m_OutputSlot": {
                "m_Node": {
                    "m_Id": "14575dc7455a4624b42c55d8644613e2"
                },
                "m_SlotId": 3
            },
            "m_InputSlot": {
                "m_Node": {
                    "m_Id": "ef3c8c36267b4449b26be2231a5c593e"
                },
                "m_SlotId": 0
            }
        },
        {
            "m_OutputSlot": {
                "m_Node": {
                    "m_Id": "15b0726466874d8aa14f3611c637f008"
                },
                "m_SlotId": 1
            },
            "m_InputSlot": {
                "m_Node": {
                    "m_Id": "d1977004a1034932b70642a20968d7b7"
                },
                "m_SlotId": 1
            }
        },
        {
            "m_OutputSlot": {
                "m_Node": {
                    "m_Id": "3ea7f9bda9fb4aae862979a10cbca892"
                },
                "m_SlotId": 0
            },
            "m_InputSlot": {
                "m_Node": {
                    "m_Id": "15b0726466874d8aa14f3611c637f008"
                },
                "m_SlotId": -745619646
            }
        },
        {
            "m_OutputSlot": {
                "m_Node": {
                    "m_Id": "410941489c934dbaa68714201083ffdf"
                },
                "m_SlotId": 0
            },
            "m_InputSlot": {
                "m_Node": {
                    "m_Id": "14575dc7455a4624b42c55d8644613e2"
                },
                "m_SlotId": 1
            }
        },
        {
            "m_OutputSlot": {
                "m_Node": {
                    "m_Id": "472de92c59bb4f9893712924512d921f"
                },
                "m_SlotId": 0
            },
            "m_InputSlot": {
                "m_Node": {
                    "m_Id": "df60462afbb944d6b8025f84623b7e85"
                },
                "m_SlotId": 1
            }
        },
        {
            "m_OutputSlot": {
                "m_Node": {
                    "m_Id": "525f8038028b45488c61424c4e64d8a4"
                },
                "m_SlotId": 0
            },
            "m_InputSlot": {
                "m_Node": {
                    "m_Id": "14575dc7455a4624b42c55d8644613e2"
                },
                "m_SlotId": 0
            }
        },
        {
            "m_OutputSlot": {
                "m_Node": {
                    "m_Id": "77991f1ef1d44b729cde5d3b4b7e7ac5"
                },
                "m_SlotId": 0
            },
            "m_InputSlot": {
                "m_Node": {
                    "m_Id": "df60462afbb944d6b8025f84623b7e85"
                },
                "m_SlotId": 0
            }
        },
        {
            "m_OutputSlot": {
                "m_Node": {
                    "m_Id": "7a184fc3dbf340d7960011e386fa00eb"
                },
                "m_SlotId": 1
            },
            "m_InputSlot": {
                "m_Node": {
                    "m_Id": "15b0726466874d8aa14f3611c637f008"
                },
                "m_SlotId": 165139896
            }
        },
        {
            "m_OutputSlot": {
                "m_Node": {
                    "m_Id": "b0093df5d0e9401ca41c59f2f6bcecb2"
                },
                "m_SlotId": 1
            },
            "m_InputSlot": {
                "m_Node": {
                    "m_Id": "7a184fc3dbf340d7960011e386fa00eb"
                },
                "m_SlotId": 0
            }
        },
        {
            "m_OutputSlot": {
                "m_Node": {
                    "m_Id": "b0093df5d0e9401ca41c59f2f6bcecb2"
                },
                "m_SlotId": 1
            },
            "m_InputSlot": {
                "m_Node": {
                    "m_Id": "c813c987a1bc45179dffe876b20015cd"
                },
                "m_SlotId": 0
            }
        },
        {
            "m_OutputSlot": {
                "m_Node": {
                    "m_Id": "b04fa32d9a9743578882488e7c46745e"
                },
                "m_SlotId": 1
            },
            "m_InputSlot": {
                "m_Node": {
                    "m_Id": "14575dc7455a4624b42c55d8644613e2"
                },
                "m_SlotId": 2
            }
        },
        {
            "m_OutputSlot": {
                "m_Node": {
                    "m_Id": "c813c987a1bc45179dffe876b20015cd"
                },
                "m_SlotId": 3
            },
            "m_InputSlot": {
                "m_Node": {
                    "m_Id": "0cd8f6cfd3dd414fbb901a7f3d102231"
                },
                "m_SlotId": 0
            }
        },
        {
            "m_OutputSlot": {
                "m_Node": {
                    "m_Id": "c813c987a1bc45179dffe876b20015cd"
                },
                "m_SlotId": 3
            },
            "m_InputSlot": {
                "m_Node": {
                    "m_Id": "df60462afbb944d6b8025f84623b7e85"
                },
                "m_SlotId": 2
            }
        },
        {
            "m_OutputSlot": {
                "m_Node": {
                    "m_Id": "df60462afbb944d6b8025f84623b7e85"
                },
                "m_SlotId": 3
            },
            "m_InputSlot": {
                "m_Node": {
                    "m_Id": "15b0726466874d8aa14f3611c637f008"
                },
                "m_SlotId": -619330956
            }
        },
        {
            "m_OutputSlot": {
                "m_Node": {
                    "m_Id": "ef3c8c36267b4449b26be2231a5c593e"
                },
                "m_SlotId": 1
            },
            "m_InputSlot": {
                "m_Node": {
                    "m_Id": "15b0726466874d8aa14f3611c637f008"
                },
                "m_SlotId": 1884166271
            }
        },
        {
            "m_OutputSlot": {
                "m_Node": {
                    "m_Id": "f835e1456f5d4bf6825fbbccb8b08c5c"
                },
                "m_SlotId": 0
            },
            "m_InputSlot": {
                "m_Node": {
                    "m_Id": "b0093df5d0e9401ca41c59f2f6bcecb2"
                },
                "m_SlotId": -1402318751
            }
        }
    ],
    "m_VertexContext": {
        "m_Position": {
            "x": 0.0,
            "y": 0.0
        },
        "m_Blocks": []
    },
    "m_FragmentContext": {
        "m_Position": {
            "x": 0.0,
            "y": 0.0
        },
        "m_Blocks": []
    },
    "m_PreviewData": {
        "serializedMesh": {
            "m_SerializedMesh": "{\"mesh\":{\"instanceID\":0}}",
            "m_Guid": ""
        }
    },
    "m_Path": "Sub Graphs",
    "m_ConcretePrecision": 0,
    "m_PreviewMode": 2,
    "m_OutputNode": {
        "m_Id": "d1977004a1034932b70642a20968d7b7"
    },
    "m_ActiveTargets": []
}

{
    "m_SGVersion": 0,
    "m_Type": "UnityEditor.ShaderGraph.Vector2MaterialSlot",
    "m_ObjectId": "01a9aac38556432db09ccd9504d77765",
    "m_Id": 0,
    "m_DisplayName": "RandomSeed",
    "m_SlotType": 1,
    "m_Hidden": false,
    "m_ShaderOutputName": "Out",
    "m_StageCapability": 3,
    "m_Value": {
        "x": 0.0,
        "y": 0.0
    },
    "m_DefaultValue": {
        "x": 0.0,
        "y": 0.0
    },
    "m_Labels": []
}

{
    "m_SGVersion": 0,
    "m_Type": "UnityEditor.ShaderGraph.Vector1MaterialSlot",
    "m_ObjectId": "03601994336541558c593dd31d1e6c9e",
    "m_Id": 0,
    "m_DisplayName": "RotationMin",
    "m_SlotType": 1,
    "m_Hidden": false,
    "m_ShaderOutputName": "Out",
    "m_StageCapability": 3,
    "m_Value": 0.0,
    "m_DefaultValue": 0.0,
    "m_Labels": []
}

{
    "m_SGVersion": 0,
    "m_Type": "UnityEditor.ShaderGraph.DynamicVectorMaterialSlot",
    "m_ObjectId": "0a623aaa46484ca5a84b2a26de60c241",
    "m_Id": 3,
    "m_DisplayName": "Out",
    "m_SlotType": 1,
    "m_Hidden": false,
    "m_ShaderOutputName": "Out",
    "m_StageCapability": 3,
    "m_Value": {
        "x": 0.0,
        "y": 0.0,
        "z": 0.0,
        "w": 0.0
    },
    "m_DefaultValue": {
        "x": 0.0,
        "y": 0.0,
        "z": 0.0,
        "w": 0.0
    }
}

{
    "m_SGVersion": 0,
    "m_Type": "UnityEditor.ShaderGraph.MultiplyNode",
    "m_ObjectId": "0cd8f6cfd3dd414fbb901a7f3d102231",
    "m_Group": {
        "m_Id": ""
    },
    "m_Name": "Multiply",
    "m_DrawState": {
        "m_Expanded": false,
        "m_Position": {
            "serializedVersion": "2",
            "x": 228.0,
            "y": 519.0,
            "width": 126.0,
            "height": 118.0
        }
    },
    "m_Slots": [
        {
            "m_Id": "42e22bd31ab24d9b81f84b97497bdee0"
        },
        {
            "m_Id": "820ad63044074e3aac865f1f222c4ed3"
        },
        {
            "m_Id": "78c5bb4945bc4655a76df5ad0de14ad9"
        }
    ],
    "synonyms": [],
    "m_Precision": 0,
    "m_PreviewExpanded": false,
    "m_PreviewMode": 0,
    "m_CustomColors": {
        "m_SerializableColors": []
    }
}

{
    "m_SGVersion": 0,
    "m_Type": "UnityEditor.ShaderGraph.LerpNode",
    "m_ObjectId": "14575dc7455a4624b42c55d8644613e2",
    "m_Group": {
        "m_Id": ""
    },
    "m_Name": "Lerp",
    "m_DrawState": {
        "m_Expanded": true,
        "m_Position": {
            "serializedVersion": "2",
            "x": 605.0,
            "y": 326.0,
            "width": 126.0,
            "height": 142.0
        }
    },
    "m_Slots": [
        {
            "m_Id": "69002defd4af4bdf97db714ca154990a"
        },
        {
            "m_Id": "19175a4f09ba470fbe4946d78fd30525"
        },
        {
            "m_Id": "f1b2de80440a46bcb6a795485a580514"
        },
        {
            "m_Id": "0a623aaa46484ca5a84b2a26de60c241"
        }
    ],
    "synonyms": [],
    "m_Precision": 0,
    "m_PreviewExpanded": false,
    "m_PreviewMode": 0,
    "m_CustomColors": {
        "m_SerializableColors": []
    }
}

{
    "m_SGVersion": 0,
    "m_Type": "UnityEditor.ShaderGraph.SubGraphNode",
    "m_ObjectId": "15b0726466874d8aa14f3611c637f008",
    "m_Group": {
        "m_Id": ""
    },
    "m_Name": "UVTransform",
    "m_DrawState": {
        "m_Expanded": true,
        "m_Position": {
            "serializedVersion": "2",
            "x": 1103.0,
            "y": 170.0,
            "width": 168.0,
            "height": 190.0
        }
    },
    "m_Slots": [
        {
            "m_Id": "1ff2516e98234149828f3a703685f92d"
        },
        {
            "m_Id": "e29d3249b1704648b69c8ca1403f9bff"
        },
        {
            "m_Id": "8c332e83e8d6477e9eb3f0f54a826c4e"
        },
        {
            "m_Id": "2d07decaafa449b3be3973368ddd3a61"
        },
        {
            "m_Id": "42227687eb0d48a78941e39c1d81b3e8"
        },
        {
            "m_Id": "320b9e1ef5e14f87a3246e44b3570967"
        }
    ],
    "synonyms": [],
    "m_Precision": 0,
    "m_PreviewExpanded": false,
    "m_PreviewMode": 0,
    "m_CustomColors": {
        "m_SerializableColors": []
    },
    "m_SerializedSubGraph": "{\n    \"subGraph\": {\n        \"fileID\": -5475051401550479605,\n        \"guid\": \"4dbe9f8d0e60a1b40b1347a75517e0d9\",\n        \"type\": 3\n    }\n}",
    "m_PropertyGuids": [
        "cf1cf0f6-9c92-4f6e-b4ef-80693c1a30da",
        "e27f9437-eea8-4118-a89e-05c6e4bde597",
        "957a530b-d634-4bc1-8269-33bc7b7890b5",
        "2c9e8060-8c8b-42df-8cf5-7b9e967620cb",
        "c5532050-6aec-4b2c-8bea-1f049e7d998d"
    ],
    "m_PropertyIds": [
        -745619646,
        165139896,
        1884166271,
        -619330956,
        -1329632271
    ]
}

{
    "m_SGVersion": 0,
    "m_Type": "UnityEditor.ShaderGraph.Vector2MaterialSlot",
    "m_ObjectId": "16045532bc634fd4aea40e73b106a1a2",
    "m_Id": 0,
    "m_DisplayName": "UV",
    "m_SlotType": 1,
    "m_Hidden": false,
    "m_ShaderOutputName": "Out",
    "m_StageCapability": 3,
    "m_Value": {
        "x": 0.0,
        "y": 0.0
    },
    "m_DefaultValue": {
        "x": 0.0,
        "y": 0.0
    },
    "m_Labels": []
}

{
    "m_SGVersion": 0,
    "m_Type": "UnityEditor.ShaderGraph.DynamicVectorMaterialSlot",
    "m_ObjectId": "16cba73c32944d9d9c8e4eef9c0fbe43",
    "m_Id": 1,
    "m_DisplayName": "Out",
    "m_SlotType": 1,
    "m_Hidden": false,
    "m_ShaderOutputName": "Out",
    "m_StageCapability": 3,
    "m_Value": {
        "x": 0.0,
        "y": 0.0,
        "z": 0.0,
        "w": 0.0
    },
    "m_DefaultValue": {
        "x": 0.0,
        "y": 0.0,
        "z": 0.0,
        "w": 0.0
    }
}

{
    "m_SGVersion": 0,
    "m_Type": "UnityEditor.ShaderGraph.DynamicVectorMaterialSlot",
    "m_ObjectId": "19175a4f09ba470fbe4946d78fd30525",
    "m_Id": 1,
    "m_DisplayName": "B",
    "m_SlotType": 0,
    "m_Hidden": false,
    "m_ShaderOutputName": "B",
    "m_StageCapability": 3,
    "m_Value": {
        "x": 1.0,
        "y": 1.0,
        "z": 1.0,
        "w": 1.0
    },
    "m_DefaultValue": {
        "x": 0.0,
        "y": 0.0,
        "z": 0.0,
        "w": 0.0
    }
}

{
    "m_SGVersion": 0,
    "m_Type": "UnityEditor.ShaderGraph.Vector3MaterialSlot",
    "m_ObjectId": "1f357468d3ea49e5b5f1c66c7ae46a98",
    "m_Id": 1,
    "m_DisplayName": "Hash",
    "m_SlotType": 1,
    "m_Hidden": false,
    "m_ShaderOutputName": "Hash",
    "m_StageCapability": 3,
    "m_Value": {
        "x": 0.0,
        "y": 0.0,
        "z": 0.0
    },
    "m_DefaultValue": {
        "x": 0.0,
        "y": 0.0,
        "z": 0.0
    },
    "m_Labels": []
}

{
    "m_SGVersion": 0,
    "m_Type": "UnityEditor.ShaderGraph.Vector2MaterialSlot",
    "m_ObjectId": "1ff2516e98234149828f3a703685f92d",
    "m_Id": -745619646,
    "m_DisplayName": "UVs",
    "m_SlotType": 0,
    "m_Hidden": false,
    "m_ShaderOutputName": "Vector2_e36ed4b84e5445979cb5476e80a42107",
    "m_StageCapability": 3,
    "m_Value": {
        "x": 0.0,
        "y": 0.0
    },
    "m_DefaultValue": {
        "x": 0.0,
        "y": 0.0
    },
    "m_Labels": []
}

{
    "m_SGVersion": 0,
    "m_Type": "UnityEditor.ShaderGraph.DynamicVectorMaterialSlot",
    "m_ObjectId": "2580c728b014475a84bb9939bb62193b",
    "m_Id": 0,
    "m_DisplayName": "In",
    "m_SlotType": 0,
    "m_Hidden": false,
    "m_ShaderOutputName": "In",
    "m_StageCapability": 3,
    "m_Value": {
        "x": 0.0,
        "y": 0.0,
        "z": 0.0,
        "w": 0.0
    },
    "m_DefaultValue": {
        "x": 0.0,
        "y": 0.0,
        "z": 0.0,
        "w": 0.0
    }
}

{
    "m_SGVersion": 1,
    "m_Type": "UnityEditor.ShaderGraph.Internal.Vector1ShaderProperty",
    "m_ObjectId": "2a5ee06c2ed24aa190be3cb0abc6b3d3",
    "m_Guid": {
        "m_GuidSerialized": "8fbaf076-4d2c-4d1e-8113-8f00d226448b"
    },
    "m_Name": "RotationMax",
    "m_DefaultReferenceName": "Vector1_2a5ee06c2ed24aa190be3cb0abc6b3d3",
    "m_OverrideReferenceName": "",
    "m_GeneratePropertyBlock": true,
    "m_Precision": 0,
    "overrideHLSLDeclaration": false,
    "hlslDeclarationOverride": 0,
    "m_Hidden": false,
    "m_Value": 0.0,
    "m_FloatType": 0,
    "m_RangeValues": {
        "x": 0.0,
        "y": 1.0
    }
}

{
    "m_SGVersion": 0,
    "m_Type": "UnityEditor.ShaderGraph.Vector2MaterialSlot",
    "m_ObjectId": "2d07decaafa449b3be3973368ddd3a61",
    "m_Id": -619330956,
    "m_DisplayName": "Scale",
    "m_SlotType": 0,
    "m_Hidden": false,
    "m_ShaderOutputName": "Vector2_1cb978480b4e4553a1c9b2236e627399",
    "m_StageCapability": 3,
    "m_Value": {
        "x": 1.0,
        "y": 1.0
    },
    "m_DefaultValue": {
        "x": 0.0,
        "y": 0.0
    },
    "m_Labels": []
}

{
    "m_SGVersion": 0,
    "m_Type": "UnityEditor.ShaderGraph.Vector2MaterialSlot",
    "m_ObjectId": "320b9e1ef5e14f87a3246e44b3570967",
    "m_Id": 1,
    "m_DisplayName": "UVs",
    "m_SlotType": 1,
    "m_Hidden": false,
    "m_ShaderOutputName": "UVs",
    "m_StageCapability": 3,
    "m_Value": {
        "x": 0.0,
        "y": 0.0
    },
    "m_DefaultValue": {
        "x": 0.0,
        "y": 0.0
    },
    "m_Labels": []
}

{
    "m_SGVersion": 0,
    "m_Type": "UnityEditor.ShaderGraph.Vector2MaterialSlot",
    "m_ObjectId": "3a34d6a7c47b476ea09bfe84fceb06a2",
    "m_Id": 1,
    "m_DisplayName": "UV",
    "m_SlotType": 0,
    "m_Hidden": false,
    "m_ShaderOutputName": "UV",
    "m_StageCapability": 3,
    "m_Value": {
        "x": 0.0,
        "y": 0.0
    },
    "m_DefaultValue": {
        "x": 0.0,
        "y": 0.0
    },
    "m_Labels": []
}

{
    "m_SGVersion": 0,
    "m_Type": "UnityEditor.ShaderGraph.PropertyNode",
    "m_ObjectId": "3ea7f9bda9fb4aae862979a10cbca892",
    "m_Group": {
        "m_Id": ""
    },
    "m_Name": "Property",
    "m_DrawState": {
        "m_Expanded": true,
        "m_Position": {
            "serializedVersion": "2",
            "x": 947.0,
            "y": 136.0,
            "width": 93.0,
            "height": 34.0
        }
    },
    "m_Slots": [
        {
            "m_Id": "16045532bc634fd4aea40e73b106a1a2"
        }
    ],
    "synonyms": [],
    "m_Precision": 0,
    "m_PreviewExpanded": true,
    "m_PreviewMode": 0,
    "m_CustomColors": {
        "m_SerializableColors": []
    },
    "m_Property": {
        "m_Id": "823513c015c348538c406fdf62c4ac50"
    }
}

{
    "m_SGVersion": 0,
    "m_Type": "UnityEditor.ShaderGraph.DynamicVectorMaterialSlot",
    "m_ObjectId": "3f397a6e87394f8ba49d99f73b5c4aee",
    "m_Id": 0,
    "m_DisplayName": "In",
    "m_SlotType": 0,
    "m_Hidden": false,
    "m_ShaderOutputName": "In",
    "m_StageCapability": 3,
    "m_Value": {
        "x": 0.0,
        "y": 0.0,
        "z": 0.0,
        "w": 0.0
    },
    "m_DefaultValue": {
        "x": 0.0,
        "y": 0.0,
        "z": 0.0,
        "w": 0.0
    }
}

{
    "m_SGVersion": 0,
    "m_Type": "UnityEditor.ShaderGraph.PropertyNode",
    "m_ObjectId": "410941489c934dbaa68714201083ffdf",
    "m_Group": {
        "m_Id": ""
    },
    "m_Name": "Property",
    "m_DrawState": {
        "m_Expanded": true,
        "m_Position": {
            "serializedVersion": "2",
            "x": 379.0,
            "y": 479.0,
            "width": 142.0,
            "height": 34.0
        }
    },
    "m_Slots": [
        {
            "m_Id": "9bd34663c01c48359ed8359c5492c8ab"
        }
    ],
    "synonyms": [],
    "m_Precision": 0,
    "m_PreviewExpanded": true,
    "m_PreviewMode": 0,
    "m_CustomColors": {
        "m_SerializableColors": []
    },
    "m_Property": {
        "m_Id": "2a5ee06c2ed24aa190be3cb0abc6b3d3"
    }
}

{
    "m_SGVersion": 0,
    "m_Type": "UnityEditor.ShaderGraph.Vector2MaterialSlot",
    "m_ObjectId": "42227687eb0d48a78941e39c1d81b3e8",
    "m_Id": -1329632271,
    "m_DisplayName": "Pivot",
    "m_SlotType": 0,
    "m_Hidden": false,
    "m_ShaderOutputName": "Vector2_82fa0c6dd8bc45c6af3f89b5f62e134d",
    "m_StageCapability": 3,
    "m_Value": {
        "x": 0.5,
        "y": 0.5
    },
    "m_DefaultValue": {
        "x": 0.0,
        "y": 0.0
    },
    "m_Labels": []
}

{
    "m_SGVersion": 0,
    "m_Type": "UnityEditor.ShaderGraph.DynamicValueMaterialSlot",
    "m_ObjectId": "42e22bd31ab24d9b81f84b97497bdee0",
    "m_Id": 0,
    "m_DisplayName": "A",
    "m_SlotType": 0,
    "m_Hidden": false,
    "m_ShaderOutputName": "A",
    "m_StageCapability": 3,
    "m_Value": {
        "e00": 0.0,
        "e01": 0.0,
        "e02": 0.0,
        "e03": 0.0,
        "e10": 0.0,
        "e11": 0.0,
        "e12": 0.0,
        "e13": 0.0,
        "e20": 0.0,
        "e21": 0.0,
        "e22": 0.0,
        "e23": 0.0,
        "e30": 0.0,
        "e31": 0.0,
        "e32": 0.0,
        "e33": 0.0
    },
    "m_DefaultValue": {
        "e00": 1.0,
        "e01": 0.0,
        "e02": 0.0,
        "e03": 0.0,
        "e10": 0.0,
        "e11": 1.0,
        "e12": 0.0,
        "e13": 0.0,
        "e20": 0.0,
        "e21": 0.0,
        "e22": 1.0,
        "e23": 0.0,
        "e30": 0.0,
        "e31": 0.0,
        "e32": 0.0,
        "e33": 1.0
    }
}

{
    "m_SGVersion": 0,
    "m_Type": "UnityEditor.ShaderGraph.PropertyNode",
    "m_ObjectId": "472de92c59bb4f9893712924512d921f",
    "m_Group": {
        "m_Id": ""
    },
    "m_Name": "Property",
    "m_DrawState": {
        "m_Expanded": true,
        "m_Position": {
            "serializedVersion": "2",
            "x": 473.0,
            "y": 671.0,
            "width": 126.0,
            "height": 34.0
        }
    },
    "m_Slots": [
        {
            "m_Id": "86cdadd5e91d4e32a3a070241eed46f2"
        }
    ],
    "synonyms": [],
    "m_Precision": 0,
    "m_PreviewExpanded": true,
    "m_PreviewMode": 0,
    "m_CustomColors": {
        "m_SerializableColors": []
    },
    "m_Property": {
        "m_Id": "8e107ea3c2a742009284d877685807e1"
    }
}

{
    "m_SGVersion": 0,
    "m_Type": "UnityEditor.ShaderGraph.Vector1MaterialSlot",
    "m_ObjectId": "4b71ce3d5e4941fd8de5d7e4a55b14d3",
    "m_Id": 1,
    "m_DisplayName": "R",
    "m_SlotType": 1,
    "m_Hidden": false,
    "m_ShaderOutputName": "R",
    "m_StageCapability": 3,
    "m_Value": 0.0,
    "m_DefaultValue": 0.0,
    "m_Labels": []
}

{
    "m_SGVersion": 0,
    "m_Type": "UnityEditor.ShaderGraph.PropertyNode",
    "m_ObjectId": "525f8038028b45488c61424c4e64d8a4",
    "m_Group": {
        "m_Id": ""
    },
    "m_Name": "Property",
    "m_DrawState": {
        "m_Expanded": true,
        "m_Position": {
            "serializedVersion": "2",
            "x": 379.0,
            "y": 445.0,
            "width": 139.0,
            "height": 34.0
        }
    },
    "m_Slots": [
        {
            "m_Id": "03601994336541558c593dd31d1e6c9e"
        }
    ],
    "synonyms": [],
    "m_Precision": 0,
    "m_PreviewExpanded": true,
    "m_PreviewMode": 0,
    "m_CustomColors": {
        "m_SerializableColors": []
    },
    "m_Property": {
        "m_Id": "ab61e4757102464faa071c0d79890a08"
    }
}

{
    "m_SGVersion": 0,
    "m_Type": "UnityEditor.ShaderGraph.Vector1MaterialSlot",
    "m_ObjectId": "5452529cd86d46a2bf1dddf9c4b9ecef",
    "m_Id": 0,
    "m_DisplayName": "ScaleMin",
    "m_SlotType": 1,
    "m_Hidden": false,
    "m_ShaderOutputName": "Out",
    "m_StageCapability": 3,
    "m_Value": 0.0,
    "m_DefaultValue": 0.0,
    "m_Labels": []
}

{
    "m_SGVersion": 0,
    "m_Type": "UnityEditor.ShaderGraph.Vector2MaterialSlot",
    "m_ObjectId": "6590ec4b396d4055a88815afca9b70f6",
    "m_Id": -1402318751,
    "m_DisplayName": "UV",
    "m_SlotType": 0,
    "m_Hidden": false,
    "m_ShaderOutputName": "Vector2_5915438bd6e849eda4511616f2108a37",
    "m_StageCapability": 3,
    "m_Value": {
        "x": 0.0,
        "y": 0.0
    },
    "m_DefaultValue": {
        "x": 0.0,
        "y": 0.0
    },
    "m_Labels": []
}

{
    "m_SGVersion": 0,
    "m_Type": "UnityEditor.ShaderGraph.DynamicVectorMaterialSlot",
    "m_ObjectId": "69002defd4af4bdf97db714ca154990a",
    "m_Id": 0,
    "m_DisplayName": "A",
    "m_SlotType": 0,
    "m_Hidden": false,
    "m_ShaderOutputName": "A",
    "m_StageCapability": 3,
    "m_Value": {
        "x": 0.0,
        "y": 0.0,
        "z": 0.0,
        "w": 0.0
    },
    "m_DefaultValue": {
        "x": 0.0,
        "y": 0.0,
        "z": 0.0,
        "w": 0.0
    }
}

{
    "m_SGVersion": 0,
    "m_Type": "UnityEditor.ShaderGraph.Vector1MaterialSlot",
    "m_ObjectId": "6c30e3870f3548ff9834b3f3be8bd35a",
    "m_Id": 3,
    "m_DisplayName": "B",
    "m_SlotType": 1,
    "m_Hidden": false,
    "m_ShaderOutputName": "B",
    "m_StageCapability": 3,
    "m_Value": 0.0,
    "m_DefaultValue": 0.0,
    "m_Labels": []
}

{
    "m_SGVersion": 0,
    "m_Type": "UnityEditor.ShaderGraph.PropertyNode",
    "m_ObjectId": "77991f1ef1d44b729cde5d3b4b7e7ac5",
    "m_Group": {
        "m_Id": ""
    },
    "m_Name": "Property",
    "m_DrawState": {
        "m_Expanded": true,
        "m_Position": {
            "serializedVersion": "2",
            "x": 476.0,
            "y": 637.0,
            "width": 123.0,
            "height": 34.0
        }
    },
    "m_Slots": [
        {
            "m_Id": "5452529cd86d46a2bf1dddf9c4b9ecef"
        }
    ],
    "synonyms": [],
    "m_Precision": 0,
    "m_PreviewExpanded": true,
    "m_PreviewMode": 0,
    "m_CustomColors": {
        "m_SerializableColors": []
    },
    "m_Property": {
        "m_Id": "e9e321434a194485bfe905c303314671"
    }
}

{
    "m_SGVersion": 0,
    "m_Type": "UnityEditor.ShaderGraph.DynamicValueMaterialSlot",
    "m_ObjectId": "78c5bb4945bc4655a76df5ad0de14ad9",
    "m_Id": 2,
    "m_DisplayName": "Out",
    "m_SlotType": 1,
    "m_Hidden": false,
    "m_ShaderOutputName": "Out",
    "m_StageCapability": 3,
    "m_Value": {
        "e00": 0.0,
        "e01": 0.0,
        "e02": 0.0,
        "e03": 0.0,
        "e10": 0.0,
        "e11": 0.0,
        "e12": 0.0,
        "e13": 0.0,
        "e20": 0.0,
        "e21": 0.0,
        "e22": 0.0,
        "e23": 0.0,
        "e30": 0.0,
        "e31": 0.0,
        "e32": 0.0,
        "e33": 0.0
    },
    "m_DefaultValue": {
        "e00": 1.0,
        "e01": 0.0,
        "e02": 0.0,
        "e03": 0.0,
        "e10": 0.0,
        "e11": 1.0,
        "e12": 0.0,
        "e13": 0.0,
        "e20": 0.0,
        "e21": 0.0,
        "e22": 1.0,
        "e23": 0.0,
        "e30": 0.0,
        "e31": 0.0,
        "e32": 0.0,
        "e33": 1.0
    }
}

{
    "m_SGVersion": 0,
    "m_Type": "UnityEditor.ShaderGraph.DynamicVectorMaterialSlot",
    "m_ObjectId": "796303144cea452795f9c1de63cdac82",
    "m_Id": 1,
    "m_DisplayName": "B",
    "m_SlotType": 0,
    "m_Hidden": false,
    "m_ShaderOutputName": "B",
    "m_StageCapability": 3,
    "m_Value": {
        "x": 1.0,
        "y": 1.0,
        "z": 1.0,
        "w": 1.0
    },
    "m_DefaultValue": {
        "x": 0.0,
        "y": 0.0,
        "z": 0.0,
        "w": 0.0
    }
}

{
    "m_SGVersion": 0,
    "m_Type": "UnityEditor.ShaderGraph.DynamicVectorMaterialSlot",
    "m_ObjectId": "79c9271702a44c39b4d84d7daa11ffae",
    "m_Id": 0,
    "m_DisplayName": "A",
    "m_SlotType": 0,
    "m_Hidden": false,
    "m_ShaderOutputName": "A",
    "m_StageCapability": 3,
    "m_Value": {
        "x": 0.0,
        "y": 0.0,
        "z": 0.0,
        "w": 0.0
    },
    "m_DefaultValue": {
        "x": 0.0,
        "y": 0.0,
        "z": 0.0,
        "w": 0.0
    }
}

{
    "m_SGVersion": 1,
    "m_Type": "UnityEditor.ShaderGraph.SwizzleNode",
    "m_ObjectId": "7a184fc3dbf340d7960011e386fa00eb",
    "m_Group": {
        "m_Id": ""
    },
    "m_Name": "Swizzle",
    "m_DrawState": {
        "m_Expanded": true,
        "m_Position": {
            "serializedVersion": "2",
            "x": 599.0,
            "y": 191.0,
            "width": 132.0,
            "height": 124.0
        }
    },
    "m_Slots": [
        {
            "m_Id": "2580c728b014475a84bb9939bb62193b"
        },
        {
            "m_Id": "c71fabae28694e6d81f595c1e2aaf60e"
        }
    ],
    "synonyms": [],
    "m_Precision": 0,
    "m_PreviewExpanded": false,
    "m_PreviewMode": 0,
    "m_CustomColors": {
        "m_SerializableColors": []
    },
    "_maskInput": "xy",
    "convertedMask": "xy"
}

{
    "m_SGVersion": 0,
    "m_Type": "UnityEditor.ShaderGraph.DynamicVectorMaterialSlot",
    "m_ObjectId": "7f85ea8b72d94d4e8728446bf9397668",
    "m_Id": 3,
    "m_DisplayName": "Out",
    "m_SlotType": 1,
    "m_Hidden": false,
    "m_ShaderOutputName": "Out",
    "m_StageCapability": 3,
    "m_Value": {
        "x": 0.0,
        "y": 0.0,
        "z": 0.0,
        "w": 0.0
    },
    "m_DefaultValue": {
        "x": 0.0,
        "y": 0.0,
        "z": 0.0,
        "w": 0.0
    }
}

{
    "m_SGVersion": 0,
    "m_Type": "UnityEditor.ShaderGraph.DynamicValueMaterialSlot",
    "m_ObjectId": "820ad63044074e3aac865f1f222c4ed3",
    "m_Id": 1,
    "m_DisplayName": "B",
    "m_SlotType": 0,
    "m_Hidden": false,
    "m_ShaderOutputName": "B",
    "m_StageCapability": 3,
    "m_Value": {
        "e00": 16.0,
        "e01": 2.0,
        "e02": 2.0,
        "e03": 2.0,
        "e10": 2.0,
        "e11": 2.0,
        "e12": 2.0,
        "e13": 2.0,
        "e20": 2.0,
        "e21": 2.0,
        "e22": 2.0,
        "e23": 2.0,
        "e30": 2.0,
        "e31": 2.0,
        "e32": 2.0,
        "e33": 2.0
    },
    "m_DefaultValue": {
        "e00": 1.0,
        "e01": 0.0,
        "e02": 0.0,
        "e03": 0.0,
        "e10": 0.0,
        "e11": 1.0,
        "e12": 0.0,
        "e13": 0.0,
        "e20": 0.0,
        "e21": 0.0,
        "e22": 1.0,
        "e23": 0.0,
        "e30": 0.0,
        "e31": 0.0,
        "e32": 0.0,
        "e33": 1.0
    }
}

{
    "m_SGVersion": 1,
    "m_Type": "UnityEditor.ShaderGraph.Internal.Vector2ShaderProperty",
    "m_ObjectId": "823513c015c348538c406fdf62c4ac50",
    "m_Guid": {
        "m_GuidSerialized": "81665725-fa5e-4416-9f05-07f1a8a45343"
    },
    "m_Name": "UV",
    "m_DefaultReferenceName": "Vector2_823513c015c348538c406fdf62c4ac50",
    "m_OverrideReferenceName": "",
    "m_GeneratePropertyBlock": true,
    "m_Precision": 0,
    "overrideHLSLDeclaration": false,
    "hlslDeclarationOverride": 0,
    "m_Hidden": false,
    "m_Value": {
        "x": 0.0,
        "y": 0.0,
        "z": 0.0,
        "w": 0.0
    }
}

{
    "m_SGVersion": 0,
    "m_Type": "UnityEditor.ShaderGraph.Vector1MaterialSlot",
    "m_ObjectId": "86cdadd5e91d4e32a3a070241eed46f2",
    "m_Id": 0,
    "m_DisplayName": "ScaleMax",
    "m_SlotType": 1,
    "m_Hidden": false,
    "m_ShaderOutputName": "Out",
    "m_StageCapability": 3,
    "m_Value": 0.0,
    "m_DefaultValue": 0.0,
    "m_Labels": []
}

{
    "m_SGVersion": 0,
    "m_Type": "UnityEditor.ShaderGraph.Vector1MaterialSlot",
    "m_ObjectId": "8c332e83e8d6477e9eb3f0f54a826c4e",
    "m_Id": 1884166271,
    "m_DisplayName": "Rotation",
    "m_SlotType": 0,
    "m_Hidden": false,
    "m_ShaderOutputName": "Vector1_7ec43a9be905479684717bd64c9b887b",
    "m_StageCapability": 3,
    "m_Value": 0.0,
    "m_DefaultValue": 0.0,
    "m_Labels": []
}

{
    "m_SGVersion": 1,
    "m_Type": "UnityEditor.ShaderGraph.Internal.Vector1ShaderProperty",
    "m_ObjectId": "8e107ea3c2a742009284d877685807e1",
    "m_Guid": {
        "m_GuidSerialized": "2ba3bf65-22f9-4f46-a140-4605205597c8"
    },
    "m_Name": "ScaleMax",
    "m_DefaultReferenceName": "Vector1_8e107ea3c2a742009284d877685807e1",
    "m_OverrideReferenceName": "",
    "m_GeneratePropertyBlock": true,
    "m_Precision": 0,
    "overrideHLSLDeclaration": false,
    "hlslDeclarationOverride": 0,
    "m_Hidden": false,
    "m_Value": 0.0,
    "m_FloatType": 0,
    "m_RangeValues": {
        "x": 0.0,
        "y": 1.0
    }
}

{
    "m_SGVersion": 0,
    "m_Type": "UnityEditor.ShaderGraph.Vector1MaterialSlot",
    "m_ObjectId": "8e6fbae4461b44f8bb057556b099ea85",
    "m_Id": 2,
    "m_DisplayName": "G",
    "m_SlotType": 1,
    "m_Hidden": false,
    "m_ShaderOutputName": "G",
    "m_StageCapability": 3,
    "m_Value": 0.0,
    "m_DefaultValue": 0.0,
    "m_Labels": []
}

{
    "m_SGVersion": 0,
    "m_Type": "UnityEditor.ShaderGraph.Vector1MaterialSlot",
    "m_ObjectId": "9bd34663c01c48359ed8359c5492c8ab",
    "m_Id": 0,
    "m_DisplayName": "RotationMax",
    "m_SlotType": 1,
    "m_Hidden": false,
    "m_ShaderOutputName": "Out",
    "m_StageCapability": 3,
    "m_Value": 0.0,
    "m_DefaultValue": 0.0,
    "m_Labels": []
}

{
    "m_SGVersion": 1,
    "m_Type": "UnityEditor.ShaderGraph.Internal.Vector1ShaderProperty",
    "m_ObjectId": "ab61e4757102464faa071c0d79890a08",
    "m_Guid": {
        "m_GuidSerialized": "49981aec-c034-4f64-8e21-7197c05c1840"
    },
    "m_Name": "RotationMin",
    "m_DefaultReferenceName": "Vector1_ab61e4757102464faa071c0d79890a08",
    "m_OverrideReferenceName": "",
    "m_GeneratePropertyBlock": true,
    "m_Precision": 0,
    "overrideHLSLDeclaration": false,
    "hlslDeclarationOverride": 0,
    "m_Hidden": false,
    "m_Value": 0.0,
    "m_FloatType": 0,
    "m_RangeValues": {
        "x": 0.0,
        "y": 1.0
    }
}

{
    "m_SGVersion": 0,
    "m_Type": "UnityEditor.ShaderGraph.SubGraphNode",
    "m_ObjectId": "b0093df5d0e9401ca41c59f2f6bcecb2",
    "m_Group": {
        "m_Id": ""
    },
    "m_Name": "Hash23",
    "m_DrawState": {
        "m_Expanded": true,
        "m_Position": {
            "serializedVersion": "2",
            "x": -102.0,
            "y": 191.0,
            "width": 147.0,
            "height": 94.0
        }
    },
    "m_Slots": [
        {
            "m_Id": "6590ec4b396d4055a88815afca9b70f6"
        },
        {
            "m_Id": "1f357468d3ea49e5b5f1c66c7ae46a98"
        }
    ],
    "synonyms": [],
    "m_Precision": 0,
    "m_PreviewExpanded": false,
    "m_PreviewMode": 0,
    "m_CustomColors": {
        "m_SerializableColors": []
    },
    "m_SerializedSubGraph": "{\n    \"subGraph\": {\n        \"fileID\": -5475051401550479605,\n        \"guid\": \"073a3b977bbac93498f1e427e6034d36\",\n        \"type\": 3\n    }\n}",
    "m_PropertyGuids": [
        "bbba17b5-3ad0-47f9-82bf-2d098060082d"
    ],
    "m_PropertyIds": [
        -1402318751
    ]
}

{
    "m_SGVersion": 0,
    "m_Type": "UnityEditor.ShaderGraph.FractionNode",
    "m_ObjectId": "b04fa32d9a9743578882488e7c46745e",
    "m_Group": {
        "m_Id": ""
    },
    "m_Name": "Fraction",
    "m_DrawState": {
        "m_Expanded": true,
        "m_Position": {
            "serializedVersion": "2",
            "x": 379.0,
            "y": 513.0,
            "width": 128.0,
            "height": 94.0
        }
    },
    "m_Slots": [
        {
            "m_Id": "3f397a6e87394f8ba49d99f73b5c4aee"
        },
        {
            "m_Id": "16cba73c32944d9d9c8e4eef9c0fbe43"
        }
    ],
    "synonyms": [],
    "m_Precision": 0,
    "m_PreviewExpanded": false,
    "m_PreviewMode": 0,
    "m_CustomColors": {
        "m_SerializableColors": []
    }
}

{
    "m_SGVersion": 0,
    "m_Type": "UnityEditor.ShaderGraph.DynamicVectorMaterialSlot",
    "m_ObjectId": "c1218988227e48e281d77412567449c5",
    "m_Id": 0,
    "m_DisplayName": "In",
    "m_SlotType": 0,
    "m_Hidden": false,
    "m_ShaderOutputName": "In",
    "m_StageCapability": 3,
    "m_Value": {
        "x": 0.0,
        "y": 0.0,
        "z": 0.0,
        "w": 0.0
    },
    "m_DefaultValue": {
        "x": 0.0,
        "y": 0.0,
        "z": 0.0,
        "w": 0.0
    }
}

{
    "m_SGVersion": 0,
    "m_Type": "UnityEditor.ShaderGraph.DynamicVectorMaterialSlot",
    "m_ObjectId": "c1c7c6a0a89a48c2bf4e12c497408596",
    "m_Id": 0,
    "m_DisplayName": "In",
    "m_SlotType": 0,
    "m_Hidden": false,
    "m_ShaderOutputName": "In",
    "m_StageCapability": 3,
    "m_Value": {
        "x": 0.0,
        "y": 0.0,
        "z": 0.0,
        "w": 0.0
    },
    "m_DefaultValue": {
        "x": 0.0,
        "y": 0.0,
        "z": 0.0,
        "w": 0.0
    }
}

{
    "m_SGVersion": 0,
    "m_Type": "UnityEditor.ShaderGraph.Vector2MaterialSlot",
    "m_ObjectId": "c71fabae28694e6d81f595c1e2aaf60e",
    "m_Id": 1,
    "m_DisplayName": "Out",
    "m_SlotType": 1,
    "m_Hidden": false,
    "m_ShaderOutputName": "Out",
    "m_StageCapability": 3,
    "m_Value": {
        "x": 0.0,
        "y": 0.0
    },
    "m_DefaultValue": {
        "x": 0.0,
        "y": 0.0
    },
    "m_Labels": []
}

{
    "m_SGVersion": 0,
    "m_Type": "UnityEditor.ShaderGraph.SplitNode",
    "m_ObjectId": "c813c987a1bc45179dffe876b20015cd",
    "m_Group": {
        "m_Id": ""
    },
    "m_Name": "Split",
    "m_DrawState": {
        "m_Expanded": false,
        "m_Position": {
            "serializedVersion": "2",
            "x": 78.0,
            "y": 637.0,
            "width": 119.0,
            "height": 77.0
        }
    },
    "m_Slots": [
        {
            "m_Id": "c1c7c6a0a89a48c2bf4e12c497408596"
        },
        {
            "m_Id": "4b71ce3d5e4941fd8de5d7e4a55b14d3"
        },
        {
            "m_Id": "8e6fbae4461b44f8bb057556b099ea85"
        },
        {
            "m_Id": "6c30e3870f3548ff9834b3f3be8bd35a"
        },
        {
            "m_Id": "dbba0953ecf64894ace06be5e48e6279"
        }
    ],
    "synonyms": [],
    "m_Precision": 0,
    "m_PreviewExpanded": true,
    "m_PreviewMode": 0,
    "m_CustomColors": {
        "m_SerializableColors": []
    }
}

{
    "m_SGVersion": 0,
    "m_Type": "UnityEditor.ShaderGraph.SubGraphOutputNode",
    "m_ObjectId": "d1977004a1034932b70642a20968d7b7",
    "m_Group": {
        "m_Id": ""
    },
    "m_Name": "Output",
    "m_DrawState": {
        "m_Expanded": true,
        "m_Position": {
            "serializedVersion": "2",
            "x": 1338.0,
            "y": 170.0,
            "width": 85.0,
            "height": 77.0
        }
    },
    "m_Slots": [
        {
            "m_Id": "3a34d6a7c47b476ea09bfe84fceb06a2"
        }
    ],
    "synonyms": [],
    "m_Precision": 0,
    "m_PreviewExpanded": true,
    "m_PreviewMode": 0,
    "m_CustomColors": {
        "m_SerializableColors": []
    },
    "IsFirstSlotValid": true
}

{
    "m_SGVersion": 0,
    "m_Type": "UnityEditor.ShaderGraph.DynamicVectorMaterialSlot",
    "m_ObjectId": "d5da02bc423047f9b35c9bb8b41bc139",
    "m_Id": 2,
    "m_DisplayName": "T",
    "m_SlotType": 0,
    "m_Hidden": false,
    "m_ShaderOutputName": "T",
    "m_StageCapability": 3,
    "m_Value": {
        "x": 0.0,
        "y": 0.0,
        "z": 0.0,
        "w": 0.0
    },
    "m_DefaultValue": {
        "x": 0.0,
        "y": 0.0,
        "z": 0.0,
        "w": 0.0
    }
}

{
    "m_SGVersion": 1,
    "m_Type": "UnityEditor.ShaderGraph.Internal.Vector2ShaderProperty",
    "m_ObjectId": "d8b35f7c84744f8ea8b8ff41cf690d71",
    "m_Guid": {
        "m_GuidSerialized": "a8e22051-ab7b-423c-9407-45247fccbc4f"
    },
    "m_Name": "RandomSeed",
    "m_DefaultReferenceName": "Vector2_d8b35f7c84744f8ea8b8ff41cf690d71",
    "m_OverrideReferenceName": "",
    "m_GeneratePropertyBlock": true,
    "m_Precision": 0,
    "overrideHLSLDeclaration": false,
    "hlslDeclarationOverride": 0,
    "m_Hidden": false,
    "m_Value": {
        "x": 0.0,
        "y": 0.0,
        "z": 0.0,
        "w": 0.0
    }
}

{
    "m_SGVersion": 0,
    "m_Type": "UnityEditor.ShaderGraph.Vector1MaterialSlot",
    "m_ObjectId": "dbba0953ecf64894ace06be5e48e6279",
    "m_Id": 4,
    "m_DisplayName": "A",
    "m_SlotType": 1,
    "m_Hidden": false,
    "m_ShaderOutputName": "A",
    "m_StageCapability": 3,
    "m_Value": 0.0,
    "m_DefaultValue": 0.0,
    "m_Labels": []
}

{
    "m_SGVersion": 0,
    "m_Type": "UnityEditor.ShaderGraph.LerpNode",
    "m_ObjectId": "df60462afbb944d6b8025f84623b7e85",
    "m_Group": {
        "m_Id": ""
    },
    "m_Name": "Lerp",
    "m_DrawState": {
        "m_Expanded": true,
        "m_Position": {
            "serializedVersion": "2",
            "x": 627.0,
            "y": 597.0,
            "width": 208.0,
            "height": 326.0
        }
    },
    "m_Slots": [
        {
            "m_Id": "79c9271702a44c39b4d84d7daa11ffae"
        },
        {
            "m_Id": "796303144cea452795f9c1de63cdac82"
        },
        {
            "m_Id": "d5da02bc423047f9b35c9bb8b41bc139"
        },
        {
            "m_Id": "7f85ea8b72d94d4e8728446bf9397668"
        }
    ],
    "synonyms": [],
    "m_Precision": 0,
    "m_PreviewExpanded": false,
    "m_PreviewMode": 0,
    "m_CustomColors": {
        "m_SerializableColors": []
    }
}

{
    "m_SGVersion": 0,
    "m_Type": "UnityEditor.ShaderGraph.Vector2MaterialSlot",
    "m_ObjectId": "e29d3249b1704648b69c8ca1403f9bff",
    "m_Id": 165139896,
    "m_DisplayName": "Offset",
    "m_SlotType": 0,
    "m_Hidden": false,
    "m_ShaderOutputName": "Vector2_cecdba4bcd214cd3b8ea6d9184abedde",
    "m_StageCapability": 3,
    "m_Value": {
        "x": 0.0,
        "y": 0.0
    },
    "m_DefaultValue": {
        "x": 0.0,
        "y": 0.0
    },
    "m_Labels": []
}

{
    "m_SGVersion": 0,
    "m_Type": "UnityEditor.ShaderGraph.DynamicVectorMaterialSlot",
    "m_ObjectId": "e43cd1b3edde468cbdecdb2d7c9c0d8c",
    "m_Id": 1,
    "m_DisplayName": "Out",
    "m_SlotType": 1,
    "m_Hidden": false,
    "m_ShaderOutputName": "Out",
    "m_StageCapability": 3,
    "m_Value": {
        "x": 0.0,
        "y": 0.0,
        "z": 0.0,
        "w": 0.0
    },
    "m_DefaultValue": {
        "x": 0.0,
        "y": 0.0,
        "z": 0.0,
        "w": 0.0
    }
}

{
    "m_SGVersion": 1,
    "m_Type": "UnityEditor.ShaderGraph.Internal.Vector1ShaderProperty",
    "m_ObjectId": "e9e321434a194485bfe905c303314671",
    "m_Guid": {
        "m_GuidSerialized": "bf48a2af-719b-427f-b858-92f25d0dd2a2"
    },
    "m_Name": "ScaleMin",
    "m_DefaultReferenceName": "Vector1_e9e321434a194485bfe905c303314671",
    "m_OverrideReferenceName": "",
    "m_GeneratePropertyBlock": true,
    "m_Precision": 0,
    "overrideHLSLDeclaration": false,
    "hlslDeclarationOverride": 0,
    "m_Hidden": false,
    "m_Value": 0.0,
    "m_FloatType": 0,
    "m_RangeValues": {
        "x": 0.0,
        "y": 1.0
    }
}

{
    "m_SGVersion": 0,
    "m_Type": "UnityEditor.ShaderGraph.DegreesToRadiansNode",
    "m_ObjectId": "ef3c8c36267b4449b26be2231a5c593e",
    "m_Group": {
        "m_Id": ""
    },
    "m_Name": "Degrees To Radians",
    "m_DrawState": {
        "m_Expanded": true,
        "m_Position": {
            "serializedVersion": "2",
            "x": 756.0,
            "y": 327.0,
            "width": 160.0,
            "height": 94.0
        }
    },
    "m_Slots": [
        {
            "m_Id": "c1218988227e48e281d77412567449c5"
        },
        {
            "m_Id": "e43cd1b3edde468cbdecdb2d7c9c0d8c"
        }
    ],
    "synonyms": [],
    "m_Precision": 0,
    "m_PreviewExpanded": false,
    "m_PreviewMode": 0,
    "m_CustomColors": {
        "m_SerializableColors": []
    }
}

{
    "m_SGVersion": 0,
    "m_Type": "UnityEditor.ShaderGraph.DynamicVectorMaterialSlot",
    "m_ObjectId": "f1b2de80440a46bcb6a795485a580514",
    "m_Id": 2,
    "m_DisplayName": "T",
    "m_SlotType": 0,
    "m_Hidden": false,
    "m_ShaderOutputName": "T",
    "m_StageCapability": 3,
    "m_Value": {
        "x": 0.0,
        "y": 0.0,
        "z": 0.0,
        "w": 0.0
    },
    "m_DefaultValue": {
        "x": 0.0,
        "y": 0.0,
        "z": 0.0,
        "w": 0.0
    }
}

{
    "m_SGVersion": 0,
    "m_Type": "UnityEditor.ShaderGraph.PropertyNode",
    "m_ObjectId": "f835e1456f5d4bf6825fbbccb8b08c5c",
    "m_Group": {
        "m_Id": ""
    },
    "m_Name": "Property",
    "m_DrawState": {
        "m_Expanded": true,
        "m_Position": {
            "serializedVersion": "2",
            "x": -292.0,
            "y": 231.0,
            "width": 147.0,
            "height": 34.0
        }
    },
    "m_Slots": [
        {
            "m_Id": "01a9aac38556432db09ccd9504d77765"
        }
    ],
    "synonyms": [],
    "m_Precision": 0,
    "m_PreviewExpanded": true,
    "m_PreviewMode": 0,
    "m_CustomColors": {
        "m_SerializableColors": []
    },
    "m_Property": {
        "m_Id": "d8b35f7c84744f8ea8b8ff41cf690d71"
    }
}

