%YAML 1.1
%TAG !u! tag:unity3d.com,2011:
--- !u!221 &22100000
AnimatorOverrideController:
  m_ObjectHideFlags: 0
  m_CorrespondingSourceObject: {fileID: 0}
  m_PrefabInstance: {fileID: 0}
  m_PrefabAsset: {fileID: 0}
  m_Name: HiromiAnimatorOverride
  m_Controller: {fileID: 9100000, guid: b9c85224bf35fd044893c9d1795272ef, type: 2}
  m_Clips:
  - m_OriginalClip: {fileID: 7400000, guid: 0c22736c876521349bad10328f8cc6a1, type: 3}
    m_OverrideClip: {fileID: 7400000, guid: 9cf809cdbfc06ac4d8296b5268722a6f, type: 3}
  - m_OriginalClip: {fileID: 7400012, guid: 0c22736c876521349bad10328f8cc6a1, type: 3}
    m_OverrideClip: {fileID: 7400006, guid: 9cf809cdbfc06ac4d8296b5268722a6f, type: 3}
  - m_OriginalClip: {fileID: 7400024, guid: 0c22736c876521349bad10328f8cc6a1, type: 3}
    m_OverrideClip: {fileID: 7400022, guid: 9cf809cdbfc06ac4d8296b5268722a6f, type: 3}
  - m_OriginalClip: {fileID: 7400014, guid: 0c22736c876521349bad10328f8cc6a1, type: 3}
    m_OverrideClip: {fileID: 7400008, guid: 9cf809cdbfc06ac4d8296b5268722a6f, type: 3}
  - m_OriginalClip: {fileID: 7400026, guid: 0c22736c876521349bad10328f8cc6a1, type: 3}
    m_OverrideClip: {fileID: 7400024, guid: 9cf809cdbfc06ac4d8296b5268722a6f, type: 3}
  - m_OriginalClip: {fileID: 7400020, guid: 0c22736c876521349bad10328f8cc6a1, type: 3}
    m_OverrideClip: {fileID: 7400018, guid: 9cf809cdbfc06ac4d8296b5268722a6f, type: 3}
  - m_OriginalClip: {fileID: 7400004, guid: 0c22736c876521349bad10328f8cc6a1, type: 3}
    m_OverrideClip: {fileID: 7400010, guid: 9cf809cdbfc06ac4d8296b5268722a6f, type: 3}
  - m_OriginalClip: {fileID: 7400006, guid: 0c22736c876521349bad10328f8cc6a1, type: 3}
    m_OverrideClip: {fileID: 7400012, guid: 9cf809cdbfc06ac4d8296b5268722a6f, type: 3}
  - m_OriginalClip: {fileID: 7400002, guid: 0c22736c876521349bad10328f8cc6a1, type: 3}
    m_OverrideClip: {fileID: 7400002, guid: 9cf809cdbfc06ac4d8296b5268722a6f, type: 3}
  - m_OriginalClip: {fileID: 7400028, guid: 0c22736c876521349bad10328f8cc6a1, type: 3}
    m_OverrideClip: {fileID: 7400026, guid: 9cf809cdbfc06ac4d8296b5268722a6f, type: 3}
  - m_OriginalClip: {fileID: 7400022, guid: 0c22736c876521349bad10328f8cc6a1, type: 3}
    m_OverrideClip: {fileID: 7400020, guid: 9cf809cdbfc06ac4d8296b5268722a6f, type: 3}
  - m_OriginalClip: {fileID: 7400018, guid: 0c22736c876521349bad10328f8cc6a1, type: 3}
    m_OverrideClip: {fileID: 7400016, guid: 9cf809cdbfc06ac4d8296b5268722a6f, type: 3}
  - m_OriginalClip: {fileID: 7400016, guid: 0c22736c876521349bad10328f8cc6a1, type: 3}
    m_OverrideClip: {fileID: 7400014, guid: 9cf809cdbfc06ac4d8296b5268722a6f, type: 3}
