%YAML 1.1
%TAG !u! tag:unity3d.com,2011:
--- !u!114 &11400000
MonoBehaviour:
  m_ObjectHideFlags: 0
  m_CorrespondingSourceObject: {fileID: 0}
  m_PrefabInstance: {fileID: 0}
  m_PrefabAsset: {fileID: 0}
  m_GameObject: {fileID: 0}
  m_Enabled: 1
  m_EditorHideFlags: 0
  m_Script: {fileID: 11500000, guid: 55dbc81693fb7e343982b45e3006f4f1, type: 3}
  m_Name: Aali
  m_EditorClassIdentifier: 
  DinoName: Aali
  Speed: 34.1
  TurnSpeed: 100
  Acceleration: 1
  JumpPower: 15
  Strength: 1
  DinoIcon: {fileID: 21300000, guid: db5f467c6ba658644870de77d258e591, type: 3}
  DinoPrefab: {fileID: 6148334686295900217, guid: 46b037c7531364c45922a7835c303e33,
    type: 3}
  DinoMenuPrefab: {fileID: 3219744375895407697, guid: 05b751878f914724f8ed69433626276e,
    type: 3}
  DinoAnimatorOverride: {fileID: 22100000, guid: 2153b12787c7c0946a20975f5a188e56,
    type: 2}
