%YAML 1.1
%TAG !u! tag:unity3d.com,2011:
--- !u!114 &11400000
MonoBehaviour:
  m_ObjectHideFlags: 0
  m_CorrespondingSourceObject: {fileID: 0}
  m_PrefabInstance: {fileID: 0}
  m_PrefabAsset: {fileID: 0}
  m_GameObject: {fileID: 0}
  m_Enabled: 1
  m_EditorHideFlags: 0
  m_Script: {fileID: 11500000, guid: 55dbc81693fb7e343982b45e3006f4f1, type: 3}
  m_Name: Gary
  m_EditorClassIdentifier: 
  DinoName: Gary
  Speed: 33
  TurnSpeed: 200
  Acceleration: 1
  JumpPower: 15
  Strength: 5
  DinoIcon: {fileID: 21300000, guid: 5ec5e410ef86daa45b0a3ed4ce5efbfb, type: 3}
  DinoPrefab: {fileID: 8318074947274113761, guid: 3118a6ebbb998c74db96400bb11261a0,
    type: 3}
  DinoMenuPrefab: {fileID: 4942191069143364307, guid: 1bf970dc2c7190e4ab1ecb0e5a147203,
    type: 3}
  DinoAnimatorOverride: {fileID: 0}
