%YAML 1.1
%TAG !u! tag:unity3d.com,2011:
--- !u!114 &11400000
MonoBehaviour:
  m_ObjectHideFlags: 0
  m_CorrespondingSourceObject: {fileID: 0}
  m_PrefabInstance: {fileID: 0}
  m_PrefabAsset: {fileID: 0}
  m_GameObject: {fileID: 0}
  m_Enabled: 1
  m_EditorHideFlags: 0
  m_Script: {fileID: 11500000, guid: 59956459c01492741b0c9851ddecc4dd, type: 3}
  m_Name: GameData
  m_EditorClassIdentifier: 
  selectedGameMode: 0
  selectedCup: {fileID: 11400000, guid: 2576895e9c09e9443922bb2bea69c8b0, type: 2}
  SelectedRaceSceneIndex: 0
  dinoSelected: {fileID: 11400000, guid: 91e11e5cb1b8bcb44ab36d320cb1dbea, type: 2}
