%YAML 1.1
%TAG !u! tag:unity3d.com,2011:
--- !u!1 &740959919
GameObject:
  m_ObjectHideFlags: 0
  m_CorrespondingSourceObject: {fileID: 0}
  m_PrefabInstance: {fileID: 0}
  m_PrefabAsset: {fileID: 0}
  serializedVersion: 6
  m_Component:
  - component: {fileID: 740959918}
  - component: {fileID: 5475958536669949997}
  m_Layer: 0
  m_Name: GOConfuse
  m_TagString: Untagged
  m_Icon: {fileID: 0}
  m_NavMeshLayer: 0
  m_StaticEditorFlags: 0
  m_IsActive: 1
--- !u!4 &740959918
Transform:
  m_ObjectHideFlags: 0
  m_CorrespondingSourceObject: {fileID: 0}
  m_PrefabInstance: {fileID: 0}
  m_PrefabAsset: {fileID: 0}
  m_GameObject: {fileID: 740959919}
  m_LocalRotation: {x: 0, y: 0, z: 0, w: 1}
  m_LocalPosition: {x: 0, y: 0, z: 0}
  m_LocalScale: {x: 1, y: 1, z: 1}
  m_Children:
  - {fileID: 437429209439226843}
  m_Father: {fileID: 0}
  m_RootOrder: 0
  m_LocalEulerAnglesHint: {x: 0, y: 0, z: 0}
--- !u!114 &5475958536669949997
MonoBehaviour:
  m_ObjectHideFlags: 0
  m_CorrespondingSourceObject: {fileID: 0}
  m_PrefabInstance: {fileID: 0}
  m_PrefabAsset: {fileID: 0}
  m_GameObject: {fileID: 740959919}
  m_Enabled: 1
  m_EditorHideFlags: 0
  m_Script: {fileID: 11500000, guid: 8e7735ea61fad8440ab6a5a2eed0aea6, type: 3}
  m_Name: 
  m_EditorClassIdentifier: 
  powerNumber: 7
  duration: 3
  powerUpAudio: {fileID: 8300000, guid: 71b2195044017d94cb0fba58121da072, type: 3}
  particles: {fileID: 19864276, guid: 2ed06ab528b7c474eb9246421cd7c791, type: 3}
  launchObject: {fileID: 439534034200935057}
  invertHorizontal: 1
  invertAccel: 0
--- !u!1001 &440609248398401931
PrefabInstance:
  m_ObjectHideFlags: 0
  serializedVersion: 2
  m_Modification:
    m_TransformParent: {fileID: 740959918}
    m_Modifications:
    - target: {fileID: 1356964595784474, guid: c091cc6019f9bd24d84d6009aef6f741, type: 3}
      propertyPath: m_Name
      value: PowerShot
      objectReference: {fileID: 0}
    - target: {fileID: 1356964595784474, guid: c091cc6019f9bd24d84d6009aef6f741, type: 3}
      propertyPath: m_IsActive
      value: 0
      objectReference: {fileID: 0}
    - target: {fileID: 4314803678521936, guid: c091cc6019f9bd24d84d6009aef6f741, type: 3}
      propertyPath: m_RootOrder
      value: 0
      objectReference: {fileID: 0}
    - target: {fileID: 4314803678521936, guid: c091cc6019f9bd24d84d6009aef6f741, type: 3}
      propertyPath: m_LocalPosition.x
      value: 0
      objectReference: {fileID: 0}
    - target: {fileID: 4314803678521936, guid: c091cc6019f9bd24d84d6009aef6f741, type: 3}
      propertyPath: m_LocalPosition.y
      value: 0
      objectReference: {fileID: 0}
    - target: {fileID: 4314803678521936, guid: c091cc6019f9bd24d84d6009aef6f741, type: 3}
      propertyPath: m_LocalPosition.z
      value: 0
      objectReference: {fileID: 0}
    - target: {fileID: 4314803678521936, guid: c091cc6019f9bd24d84d6009aef6f741, type: 3}
      propertyPath: m_LocalRotation.w
      value: 1
      objectReference: {fileID: 0}
    - target: {fileID: 4314803678521936, guid: c091cc6019f9bd24d84d6009aef6f741, type: 3}
      propertyPath: m_LocalRotation.x
      value: 0
      objectReference: {fileID: 0}
    - target: {fileID: 4314803678521936, guid: c091cc6019f9bd24d84d6009aef6f741, type: 3}
      propertyPath: m_LocalRotation.y
      value: 0
      objectReference: {fileID: 0}
    - target: {fileID: 4314803678521936, guid: c091cc6019f9bd24d84d6009aef6f741, type: 3}
      propertyPath: m_LocalRotation.z
      value: 0
      objectReference: {fileID: 0}
    - target: {fileID: 4314803678521936, guid: c091cc6019f9bd24d84d6009aef6f741, type: 3}
      propertyPath: m_LocalEulerAnglesHint.x
      value: 0
      objectReference: {fileID: 0}
    - target: {fileID: 4314803678521936, guid: c091cc6019f9bd24d84d6009aef6f741, type: 3}
      propertyPath: m_LocalEulerAnglesHint.y
      value: 0
      objectReference: {fileID: 0}
    - target: {fileID: 4314803678521936, guid: c091cc6019f9bd24d84d6009aef6f741, type: 3}
      propertyPath: m_LocalEulerAnglesHint.z
      value: 0
      objectReference: {fileID: 0}
    m_RemovedComponents: []
  m_SourcePrefab: {fileID: 100100000, guid: c091cc6019f9bd24d84d6009aef6f741, type: 3}
--- !u!1 &439534034200935057 stripped
GameObject:
  m_CorrespondingSourceObject: {fileID: 1356964595784474, guid: c091cc6019f9bd24d84d6009aef6f741,
    type: 3}
  m_PrefabInstance: {fileID: 440609248398401931}
  m_PrefabAsset: {fileID: 0}
--- !u!4 &437429209439226843 stripped
Transform:
  m_CorrespondingSourceObject: {fileID: 4314803678521936, guid: c091cc6019f9bd24d84d6009aef6f741,
    type: 3}
  m_PrefabInstance: {fileID: 440609248398401931}
  m_PrefabAsset: {fileID: 0}
